The R Nerd Blog - Exploratory Data Analysis: The Basics
…
Missing data

Basic distributions

Correlations?

Investigating Categorical Count Data

# Code
data <- data %>% 
  mutate(sex = as.factor(sex))

data %>% count(species, sort = TRUE)

# A tibble: 31 × 2
   species      n
   <chr>    <int>
 1 Human       22
 2 Droid        4
 3 Gungan       2
 4 Mirialan     2
 5 Wookiee      2
 6 Aleena       1
 7 Besalisk     1
 8 Cerean       1
 9 Clawdite     1
10 Dug          1
# … with 21 more rows
…
